{
  "type": "service_account",
  "project_id": "wifi-thermostat-290603",
  "private_key_id": "3432ddca267c6aebd22e4dae891debc64bb3b205",
  "private_key": "-----BEGIN PRIVATE KEY-----\nMIIEvwIBADANBgkqhkiG9w0BAQEFAASCBKkwggSlAgEAAoIBAQDcZexYIkveeZ75\nzX6UqfatAbADHFeowqIOotuWsaUQvkdOj/UbIog02F4OuzXvAToaSGt7pAVRe3wv\noqFgpd6Idj9AGEKS+Mre8Bhvg1vOlMvnNbjvs4DZchZ+ptnL36A6nxV/tBahWtYx\nu2Q44o5ziF5uoPTeA5JEjehWbSnAbvp3VLIaYdc46DaY6vT1WoPIPdYVrJ6BXjuR\nHRxXV4cdwci4JKkgjBhpPj07Qpe1U/wlEuzK9ZxX6+bwJbzDZz36BIwsknZc12Eo\nruON79R3pFb9eKiLWmhSq99oq1NoMbPNk3EDcOFsnxcru0Sre9aBDhkTr52DVbxD\na8BBGzdLAgMBAAECggEABHkLiE4+WWYuLggQVdeCA99bgz946jCpPzx//z0+78fY\nj/oLLdPyBaV48gUtnoer7tBxBq8xcbtVJk7smLyAUczVuGzHf7Cct4GZewA7FLdY\nDRQ2Wv5J7TomPk8Afl3sJEVc4qgHqAPExg/mQIh3WRmKbJqiKcq0tD9J2MZ4MnpG\nUVKZUi3d11yICVlA9rOhe/dBKZhz3z9TF08dB/s7n/B6iM96X+UZ/yKH31xSe/ns\nQCfS1/lkV3a04jWcuP79qIbr0hjUEL9cp+5fWVeBuiAtM6p3R05DJG3gV7cg3zGZ\nQbxgSZcORBGAzkm/JBsn4ePMmmL/u2u/9GpMwob0aQKBgQD/lyY2C3X5KZwTn3cF\nftj7UZg7lLFXWftp1w1orCRI6+B/hiqpWWQfdPxfWwh/R0BBXY/j2fGVE/yoFr4U\nIH/7o1MDklZeKSk2P+6diTmzEZQ1bls4rJaq0rmxA0BWOnNmxx7pzujXBeFF59x9\neBt36Xni19L11knQYEw7qJSVswKBgQDcwFZIXrfID+qU7rtEaoUwNJwRdfcvgMJl\n7lSWoEkkakGASjWTI0oM6jcExX9X6CuteNY2oxXMzYSaYHqv+ZQrgnvSfMv074jr\nVGh76/GTWn+9GAByKV09QZ0mfKmJ3NRX5eaoJd2Li+T0QE4SXl8zKx90C6B3UUFq\nEcFkLgQ8CQKBgQDFOVJAA+n94VDRh4ylTfOLQrQwzZVm7UVmr45mRecd6f3rCZGj\n6hmreG9B+ZH9/PIlPlhJHyUevzSIVDxKdaWsfKQTLnm84RAvD3hGUdyXRCpUbJqx\nieQdXsvxPqwHncTs+xvsmT/spFnnwnnOy76OcjgehiIAl2GQDK7mnjhBpwKBgQCH\nnBBlPOqhmEV/YHjiOp2/U1Jc158WK39ApvyH28eS+0Np0CzBSvh+npNV9w2XryTF\n2Gmf/uexfL9tJr+3wxZm9C2kzM1ulogCKURWfEdXQk0emNQNTaPdsaUcs5BjBKnd\npXng6gIDa9kmwyoy1o6dHGyiGVJmeiA5TNcE98/aIQKBgQDed1WTaRmT/lD8BA8w\n9/fvw6ERatLnXP4odFnNAswHB9oz12nNf0EYLDiuLdpWNlyiTs2z3sc6zfqeMqVX\nltUFsUUC9Wqs6U34oxSzsryTeBYgCL37vXDc+LIMZXIHzJ2sLMAUYS844KLoTALJ\nkxj4qGOiiF4wuiBgDd10BYJPbw==\n-----END PRIVATE KEY-----\n",
  "client_email": "wifi-thermostat-290603@appspot.gserviceaccount.com",
  "client_id": "112805482684401110132",
  "auth_uri": "https://accounts.google.com/o/oauth2/auth",
  "token_uri": "https://oauth2.googleapis.com/token",
  "auth_provider_x509_cert_url": "https://www.googleapis.com/oauth2/v1/certs",
  "client_x509_cert_url": "https://www.googleapis.com/robot/v1/metadata/x509/wifi-thermostat-290603%40appspot.gserviceaccount.com"
}
